{
    "callback_url": "http://localhost:7777/",
    "jid": 12345678,
    "name": "helloworld",
    "definition": {
        "name": "helloworld",
        "command": "java -version; env; sleep 15; echo hello world >&$LOGGING_CUSTOM; exit 2",
        "environment": {"TEST_ENV": "VALUE"},
        "logging": {
            "stdout": {
                "collector": "ksr.collectors.file.FileLogCollector",
                "parameters": {
                    "path": "/tmp/stdout"
                }
            },
            "stderr": {
                "collector": "ksr.collectors.file.FileLogCollector",
                "parameters": {
                    "path": "/tmp/stderr",
                    "append": true
                }
            },
            "custom": {
                "collector": "ksr.collectors.file.FileLogCollector",
                "parameters": {
                    "path": "/tmp/custom",
                    "append": true
                }
            }
        }
    }
}
